{
	"about": {
		"name": "Jane Doe",
		"website": "https://example.com",
		"email": "myname@example.com",
		"git": {
			"github": "https://github.com/example",
			"gitlab": "https://gitlab.com/users/example"
		},
		"summary": "Summary goes here"
	},
	"skills": [
			"PHP - 3 years experience",
			"Node - 2 years experience"
	],
	"employment": [
		{
			"company_name": "Widgets Ltd.",
			"positions": [
				{
					"job_title": "Systems Architect",
					"date_start": "01/2017",
					"date_end": "06/2018",
					"description": "Description goes here",
					"duties": [
						"Architecting systems",
						"Technical support for widgets"
					]
				},
				{
					"job_title": "Web Developer",
					"date_start": "06/2016",
					"date_end": "01/2017",
					"description": "Description goes here",
					"duties": [
						"Developing widgets",
						"Customer support"
					]
				}
			]
		},
		{
			"company_name": "Example Company AG",
			"positions": [
				{
					"job_title": "Web Developer",
					"date_start": "01/2015",
					"date_end": "06/2016",
					"description": "Description goes here",
					"duties": [
						"Developing websites"
					]
				}
			]
		}
	],
	"interests": [
		"I enjoy wrestling with grizzly bears in my free time"
	]
}